%YAML 1.1
%TAG !u! tag:unity3d.com,2011:
--- !u!1 &2515889100069078752
GameObject:
  m_ObjectHideFlags: 0
  m_CorrespondingSourceObject: {fileID: 0}
  m_PrefabInstance: {fileID: 0}
  m_PrefabAsset: {fileID: 0}
  serializedVersion: 6
  m_Component:
  - component: {fileID: 3174769344064005151}
  - component: {fileID: 5644940794734330728}
  - component: {fileID: 2155462895841556625}
  m_Layer: 0
  m_Name: BackPlate
  m_TagString: Untagged
  m_Icon: {fileID: 0}
  m_NavMeshLayer: 0
  m_StaticEditorFlags: 0
  m_IsActive: 1
--- !u!4 &3174769344064005151
Transform:
  m_ObjectHideFlags: 0
  m_CorrespondingSourceObject: {fileID: 0}
  m_PrefabInstance: {fileID: 0}
  m_PrefabAsset: {fileID: 0}
  m_GameObject: {fileID: 2515889100069078752}
  m_LocalRotation: {x: -0, y: -0, z: -0, w: 1}
  m_LocalPosition: {x: 0, y: -0.10410004, z: 0}
  m_LocalScale: {x: 1, y: 0.79964495, z: 5}
  m_Children: []
  m_Father: {fileID: 4517410701704522374}
  m_RootOrder: 1
  m_LocalEulerAnglesHint: {x: 0, y: 0, z: 0}
--- !u!33 &5644940794734330728
MeshFilter:
  m_ObjectHideFlags: 0
  m_CorrespondingSourceObject: {fileID: 0}
  m_PrefabInstance: {fileID: 0}
  m_PrefabAsset: {fileID: 0}
  m_GameObject: {fileID: 2515889100069078752}
  m_Mesh: {fileID: 10210, guid: 0000000000000000e000000000000000, type: 0}
--- !u!23 &2155462895841556625
MeshRenderer:
  m_ObjectHideFlags: 0
  m_CorrespondingSourceObject: {fileID: 0}
  m_PrefabInstance: {fileID: 0}
  m_PrefabAsset: {fileID: 0}
  m_GameObject: {fileID: 2515889100069078752}
  m_Enabled: 1
  m_CastShadows: 1
  m_ReceiveShadows: 1
  m_DynamicOccludee: 1
  m_MotionVectors: 1
  m_LightProbeUsage: 1
  m_ReflectionProbeUsage: 1
  m_RayTracingMode: 2
  m_RenderingLayerMask: 1
  m_RendererPriority: 0
  m_Materials:
  - {fileID: 2100000, guid: ec72a3a105768f746b556a8dfdae61a8, type: 2}
  m_StaticBatchInfo:
    firstSubMesh: 0
    subMeshCount: 0
  m_StaticBatchRoot: {fileID: 0}
  m_ProbeAnchor: {fileID: 0}
  m_LightProbeVolumeOverride: {fileID: 0}
  m_ScaleInLightmap: 1
  m_ReceiveGI: 1
  m_PreserveUVs: 0
  m_IgnoreNormalsForChartDetection: 0
  m_ImportantGI: 0
  m_StitchLightmapSeams: 0
  m_SelectedEditorRenderState: 3
  m_MinimumChartSize: 4
  m_AutoUVMaxDistance: 0.5
  m_AutoUVMaxAngle: 89
  m_LightmapParameters: {fileID: 0}
  m_SortingLayerID: 0
  m_SortingLayer: 0
  m_SortingOrder: 0
--- !u!1 &4517410700330271609
GameObject:
  m_ObjectHideFlags: 0
  m_CorrespondingSourceObject: {fileID: 0}
  m_PrefabInstance: {fileID: 0}
  m_PrefabAsset: {fileID: 0}
  serializedVersion: 6
  m_Component:
  - component: {fileID: 4517410700330271608}
  - component: {fileID: 4517410700330271612}
  - component: {fileID: 4517410700330271610}
  - component: {fileID: 4517410700330271611}
  m_Layer: 0
  m_Name: Title
  m_TagString: Untagged
  m_Icon: {fileID: 0}
  m_NavMeshLayer: 0
  m_StaticEditorFlags: 0
  m_IsActive: 1
--- !u!224 &4517410700330271608
RectTransform:
  m_ObjectHideFlags: 0
  m_CorrespondingSourceObject: {fileID: 0}
  m_PrefabInstance: {fileID: 0}
  m_PrefabAsset: {fileID: 0}
  m_GameObject: {fileID: 4517410700330271609}
  m_LocalRotation: {x: -0, y: -0, z: -0, w: 1}
  m_LocalPosition: {x: 0, y: 0, z: -1.5}
  m_LocalScale: {x: 0.015397306, y: 0.15165381, z: 1.8202766}
  m_Children: []
  m_Father: {fileID: 4517410701704522374}
  m_RootOrder: 0
  m_LocalEulerAnglesHint: {x: 0, y: 0, z: 0}
  m_AnchorMin: {x: 0.5, y: 0.5}
  m_AnchorMax: {x: 0.5, y: 0.5}
  m_AnchoredPosition: {x: -0.3182, y: -0.34}
  m_SizeDelta: {x: 20, y: 5}
  m_Pivot: {x: 0.5, y: 0.5}
--- !u!23 &4517410700330271612
MeshRenderer:
  m_ObjectHideFlags: 0
  m_CorrespondingSourceObject: {fileID: 0}
  m_PrefabInstance: {fileID: 0}
  m_PrefabAsset: {fileID: 0}
  m_GameObject: {fileID: 4517410700330271609}
  m_Enabled: 1
  m_CastShadows: 0
  m_ReceiveShadows: 0
  m_DynamicOccludee: 1
  m_MotionVectors: 1
  m_LightProbeUsage: 1
  m_ReflectionProbeUsage: 1
  m_RayTracingMode: 2
  m_RenderingLayerMask: 1
  m_RendererPriority: 0
  m_Materials:
  - {fileID: 21202819797275496, guid: 6a84f857bec7e7345843ae29404c57ce, type: 2}
  m_StaticBatchInfo:
    firstSubMesh: 0
    subMeshCount: 0
  m_StaticBatchRoot: {fileID: 0}
  m_ProbeAnchor: {fileID: 0}
  m_LightProbeVolumeOverride: {fileID: 0}
  m_ScaleInLightmap: 1
  m_ReceiveGI: 1
  m_PreserveUVs: 0
  m_IgnoreNormalsForChartDetection: 0
  m_ImportantGI: 0
  m_StitchLightmapSeams: 0
  m_SelectedEditorRenderState: 3
  m_MinimumChartSize: 4
  m_AutoUVMaxDistance: 0.5
  m_AutoUVMaxAngle: 89
  m_LightmapParameters: {fileID: 0}
  m_SortingLayerID: 0
  m_SortingLayer: 0
  m_SortingOrder: 0
--- !u!222 &4517410700330271610
CanvasRenderer:
  m_ObjectHideFlags: 0
  m_CorrespondingSourceObject: {fileID: 0}
  m_PrefabInstance: {fileID: 0}
  m_PrefabAsset: {fileID: 0}
  m_GameObject: {fileID: 4517410700330271609}
  m_CullTransparentMesh: 0
--- !u!114 &4517410700330271611
MonoBehaviour:
  m_ObjectHideFlags: 0
  m_CorrespondingSourceObject: {fileID: 0}
  m_PrefabInstance: {fileID: 0}
  m_PrefabAsset: {fileID: 0}
  m_GameObject: {fileID: 4517410700330271609}
  m_Enabled: 1
  m_EditorHideFlags: 0
  m_Script: {fileID: 11500000, guid: 9541d86e2fd84c1d9990edf0852d74ab, type: 3}
  m_Name: 
  m_EditorClassIdentifier: 
  m_Material: {fileID: 0}
  m_Color: {r: 1, g: 1, b: 1, a: 1}
  m_RaycastTarget: 1
  m_Maskable: 1
  m_OnCullStateChanged:
    m_PersistentCalls:
      m_Calls: []
  m_text: Preview camera and projection
  m_isRightToLeft: 0
  m_fontAsset: {fileID: 11400000, guid: 6a84f857bec7e7345843ae29404c57ce, type: 2}
  m_sharedMaterial: {fileID: 21202819797275496, guid: 6a84f857bec7e7345843ae29404c57ce,
    type: 2}
  m_fontSharedMaterials: []
  m_fontMaterial: {fileID: 0}
  m_fontMaterials: []
  m_fontColor32:
    serializedVersion: 2
    rgba: 4294967295
  m_fontColor: {r: 1, g: 1, b: 1, a: 1}
  m_enableVertexGradient: 0
  m_colorMode: 3
  m_fontColorGradient:
    topLeft: {r: 1, g: 1, b: 1, a: 1}
    topRight: {r: 1, g: 1, b: 1, a: 1}
    bottomLeft: {r: 1, g: 1, b: 1, a: 1}
    bottomRight: {r: 1, g: 1, b: 1, a: 1}
  m_fontColorGradientPreset: {fileID: 0}
  m_spriteAsset: {fileID: 0}
  m_tintAllSprites: 0
  m_StyleSheet: {fileID: 0}
  m_TextStyleHashCode: -1183493901
  m_overrideHtmlColors: 0
  m_faceColor:
    serializedVersion: 2
    rgba: 4294967295
  m_fontSize: 12
  m_fontSizeBase: 12
  m_fontWeight: 400
  m_enableAutoSizing: 0
  m_fontSizeMin: 18
  m_fontSizeMax: 72
  m_fontStyle: 0
  m_HorizontalAlignment: 1
  m_VerticalAlignment: 256
  m_textAlignment: 65535
  m_characterSpacing: 0
  m_wordSpacing: 0
  m_lineSpacing: 0
  m_lineSpacingMax: 0
  m_paragraphSpacing: 0
  m_charWidthMaxAdj: 0
  m_enableWordWrapping: 1
  m_wordWrappingRatios: 0.4
  m_overflowMode: 0
  m_linkedTextComponent: {fileID: 0}
  parentLinkedComponent: {fileID: 0}
  m_enableKerning: 1
  m_enableExtraPadding: 0
  checkPaddingRequired: 0
  m_isRichText: 1
  m_parseCtrlCharacters: 1
  m_isOrthographic: 0
  m_isCullingEnabled: 0
  m_horizontalMapping: 0
  m_verticalMapping: 0
  m_uvLineOffset: 0
  m_geometrySortingOrder: 0
  m_IsTextObjectScaleStatic: 0
  m_VertexBufferAutoSizeReduction: 1
  m_useMaxVisibleDescender: 1
  m_pageToDisplay: 1
  m_margin: {x: 0, y: 0, z: -24.667788, w: 2.6418085}
  m_isUsingLegacyAnimationComponent: 0
  m_isVolumetricText: 0
  m_hasFontAssetChanged: 0
  m_renderer: {fileID: 4517410700330271612}
  m_maskType: 0
  _SortingLayer: 0
  _SortingLayerID: 0
  _SortingOrder: 0
--- !u!1 &4517410701102429037
GameObject:
  m_ObjectHideFlags: 0
  m_CorrespondingSourceObject: {fileID: 0}
  m_PrefabInstance: {fileID: 0}
  m_PrefabAsset: {fileID: 0}
  serializedVersion: 6
  m_Component:
  - component: {fileID: 4517410701102429036}
  - component: {fileID: 4517410701102429039}
  - component: {fileID: 4517410701102429009}
  - component: {fileID: 26813330855406139}
  - component: {fileID: 4517410701102429011}
  - component: {fileID: 4802530265192212995}
  - component: {fileID: 2574917329752453530}
  - component: {fileID: 2739305550183271657}
  m_Layer: 0
  m_Name: LabeledImagePreview
  m_TagString: Untagged
  m_Icon: {fileID: 0}
  m_NavMeshLayer: 0
  m_StaticEditorFlags: 0
  m_IsActive: 1
--- !u!4 &4517410701102429036
Transform:
  m_ObjectHideFlags: 0
  m_CorrespondingSourceObject: {fileID: 0}
  m_PrefabInstance: {fileID: 0}
  m_PrefabAsset: {fileID: 0}
  m_GameObject: {fileID: 4517410701102429037}
  m_LocalRotation: {x: 0, y: 0, z: 0, w: 1}
  m_LocalPosition: {x: 0.023, y: 0.222, z: 0.686}
  m_LocalScale: {x: 0.6, y: 0.6, z: 1}
  m_Children:
  - {fileID: 4517410701704522374}
  - {fileID: 2715557337174083431}
  - {fileID: 8346423558657211684}
  - {fileID: 6144911380217217554}
  - {fileID: 5463273112222160221}
  - {fileID: 5463273111826019146}
  m_Father: {fileID: 0}
  m_RootOrder: 0
  m_LocalEulerAnglesHint: {x: 0, y: 0, z: 0}
--- !u!114 &4517410701102429039
MonoBehaviour:
  m_ObjectHideFlags: 0
  m_CorrespondingSourceObject: {fileID: 0}
  m_PrefabInstance: {fileID: 0}
  m_PrefabAsset: {fileID: 0}
  m_GameObject: {fileID: 4517410701102429037}
  m_Enabled: 1
  m_EditorHideFlags: 0
  m_Script: {fileID: 11500000, guid: 2d1fea68463e4e84b86c395b654f950d, type: 3}
  m_Name: 
  m_EditorClassIdentifier: 
  visualizationObject: {fileID: 9132475543591531782}
  interactableObject: {fileID: 0}
  autoFollowAtDistance: 0
  autoFollowDistance: 2
  autoFollowTransformTarget: {fileID: 0}
  autoFollowTriggered:
    m_PersistentCalls:
      m_Calls: []
--- !u!114 &4517410701102429009
MonoBehaviour:
  m_ObjectHideFlags: 0
  m_CorrespondingSourceObject: {fileID: 0}
  m_PrefabInstance: {fileID: 0}
  m_PrefabAsset: {fileID: 0}
  m_GameObject: {fileID: 4517410701102429037}
  m_Enabled: 1
  m_EditorHideFlags: 0
  m_Script: {fileID: 11500000, guid: b55691ad5b034fe6966763a6e23818d2, type: 3}
  m_Name: 
  m_EditorClassIdentifier: 
  trackedTargetType: 0
  trackedHandness: 3
  trackedHandJoint: 2
  transformOverride: {fileID: 0}
  additionalOffset: {x: 0, y: 0, z: 0}
  additionalRotation: {x: 0, y: 0, z: 0}
  updateSolvers: 1
--- !u!114 &26813330855406139
MonoBehaviour:
  m_ObjectHideFlags: 0
  m_CorrespondingSourceObject: {fileID: 0}
  m_PrefabInstance: {fileID: 0}
  m_PrefabAsset: {fileID: 0}
  m_GameObject: {fileID: 4517410701102429037}
  m_Enabled: 0
  m_EditorHideFlags: 0
  m_Script: {fileID: 11500000, guid: 4684083f6dff4a1d8a790bccc354fcf4, type: 3}
  m_Name: 
  m_EditorClassIdentifier: 
  updateLinkedTransform: 0
  moveLerpTime: 0.5
  rotateLerpTime: 0.5
  scaleLerpTime: 0
  maintainScaleOnInitialization: 1
  smoothing: 1
  lifetime: 0
  referenceDirection: 1
  minDistance: 0.4
  maxDistance: 1
  minViewDegrees: 0
  maxViewDegrees: 25
  aspectV: 1
  ignoreAngleClamp: 0
  ignoreDistanceClamp: 0
  useFixedVerticalPosition: 1
  fixedVerticalPosition: -0.2
  orientToReferenceDirection: 0
--- !u!65 &4517410701102429011
BoxCollider:
  m_ObjectHideFlags: 0
  m_CorrespondingSourceObject: {fileID: 0}
  m_PrefabInstance: {fileID: 0}
  m_PrefabAsset: {fileID: 0}
  m_GameObject: {fileID: 4517410701102429037}
  m_Material: {fileID: 0}
  m_IsTrigger: 0
  m_Enabled: 1
  serializedVersion: 2
  m_Size: {x: 0.9249632, y: 0.63449967, z: 0.047590002}
  m_Center: {x: -0.06922671, y: -0.13063765, z: 0.059046976}
--- !u!114 &4802530265192212995
MonoBehaviour:
  m_ObjectHideFlags: 0
  m_CorrespondingSourceObject: {fileID: 0}
  m_PrefabInstance: {fileID: 0}
  m_PrefabAsset: {fileID: 0}
  m_GameObject: {fileID: 4517410701102429037}
  m_Enabled: 1
  m_EditorHideFlags: 0
  m_Script: {fileID: 11500000, guid: a98de877dee5fc341b4eb59dfdab266c, type: 3}
  m_Name: 
  m_EditorClassIdentifier: 
  autoConstraintSelection: 1
  selectedConstraints: []
--- !u!114 &2574917329752453530
MonoBehaviour:
  m_ObjectHideFlags: 0
  m_CorrespondingSourceObject: {fileID: 0}
  m_PrefabInstance: {fileID: 0}
  m_PrefabAsset: {fileID: 0}
  m_GameObject: {fileID: 4517410701102429037}
  m_Enabled: 1
  m_EditorHideFlags: 0
  m_Script: {fileID: 11500000, guid: 8200a044a5affb843ba856b902d9fd3c, type: 3}
  m_Name: 
  m_EditorClassIdentifier: 
  targetObject: {fileID: 4517410701102429037}
  boundsOverride: {fileID: 4517410701102429011}
  boundsCalculationMethod: 0
  activation: 3
  flattenAxis: 4
  uniformScaleOnFlattenedAxis: 1
  boxPadding: {x: 0, y: 0, z: 0}
  boxDisplayConfiguration: {fileID: 114307133794489298, guid: 937ce507dd7ee334ba569554e24adbdd,
    type: 3}
  linksConfiguration: {fileID: 114946863364051912, guid: 937ce507dd7ee334ba569554e24adbdd,
    type: 3}
  scaleHandlesConfiguration: {fileID: 114688429180390370, guid: 937ce507dd7ee334ba569554e24adbdd,
    type: 3}
  rotationHandlesConfiguration: {fileID: 114293930930456106, guid: 937ce507dd7ee334ba569554e24adbdd,
    type: 3}
  translationHandlesConfiguration: {fileID: 0}
  handleProximityEffectConfiguration: {fileID: 114922209184845808, guid: 937ce507dd7ee334ba569554e24adbdd,
    type: 3}
  hideElementsInInspector: 1
  smoothingActive: 0
  rotateLerpTime: 0.001
  scaleLerpTime: 0.001
  translateLerpTime: 0.001
  enableConstraints: 1
  constraintsManager: {fileID: 0}
  rotateStarted:
    m_PersistentCalls:
      m_Calls:
      - m_Target: {fileID: 4517410701704522378}
        m_MethodName: PlayOneShot
        m_Mode: 2
        m_Arguments:
          m_ObjectArgument: {fileID: 8300000, guid: 765efbcf7ca1773488edcc8ab6ba4923,
            type: 3}
          m_ObjectArgumentAssemblyTypeName: UnityEngine.AudioClip, UnityEngine
          m_IntArgument: 0
          m_FloatArgument: 0
          m_StringArgument: 
          m_BoolArgument: 0
        m_CallState: 2
  rotateStopped:
    m_PersistentCalls:
      m_Calls:
      - m_Target: {fileID: 4517410701704522378}
        m_MethodName: PlayOneShot
        m_Mode: 2
        m_Arguments:
          m_ObjectArgument: {fileID: 8300000, guid: 9d90886bb6646244e852a0acb1de3a3b,
            type: 3}
          m_ObjectArgumentAssemblyTypeName: UnityEngine.AudioClip, UnityEngine
          m_IntArgument: 0
          m_FloatArgument: 0
          m_StringArgument: 
          m_BoolArgument: 0
        m_CallState: 2
  scaleStarted:
    m_PersistentCalls:
      m_Calls:
      - m_Target: {fileID: 4517410701704522378}
        m_MethodName: PlayOneShot
        m_Mode: 2
        m_Arguments:
          m_ObjectArgument: {fileID: 8300000, guid: bdc1f15a0c976854780adcd7e56cfb3e,
            type: 3}
          m_ObjectArgumentAssemblyTypeName: UnityEngine.AudioClip, UnityEngine
          m_IntArgument: 0
          m_FloatArgument: 0
          m_StringArgument: 
          m_BoolArgument: 0
        m_CallState: 2
  scaleStopped:
    m_PersistentCalls:
      m_Calls:
      - m_Target: {fileID: 4517410701704522378}
        m_MethodName: PlayOneShot
        m_Mode: 2
        m_Arguments:
          m_ObjectArgument: {fileID: 8300000, guid: 23a78d131feb8774ebe5dd1ea221933e,
            type: 3}
          m_ObjectArgumentAssemblyTypeName: UnityEngine.AudioClip, UnityEngine
          m_IntArgument: 0
          m_FloatArgument: 0
          m_StringArgument: 
          m_BoolArgument: 0
        m_CallState: 2
  translateStarted:
    m_PersistentCalls:
      m_Calls: []
  translateStopped:
    m_PersistentCalls:
      m_Calls: []
  elasticsManager: {fileID: 0}
--- !u!114 &2739305550183271657
MonoBehaviour:
  m_ObjectHideFlags: 0
  m_CorrespondingSourceObject: {fileID: 0}
  m_PrefabInstance: {fileID: 0}
  m_PrefabAsset: {fileID: 0}
  m_GameObject: {fileID: 4517410701102429037}
  m_Enabled: 1
  m_EditorHideFlags: 0
  m_Script: {fileID: 11500000, guid: 820f94d57893bf843a0cd6d93313fe6d, type: 3}
  m_Name: 
  m_EditorClassIdentifier: 
  handType: 3
  proximityType: 3
  scaleMinimum: 0.3
  scaleMaximum: 5
  relativeToInitialState: 1
--- !u!1 &4517410701237497746
GameObject:
  m_ObjectHideFlags: 0
  m_CorrespondingSourceObject: {fileID: 0}
  m_PrefabInstance: {fileID: 0}
  m_PrefabAsset: {fileID: 0}
  serializedVersion: 6
  m_Component:
  - component: {fileID: 4517410701237497749}
  - component: {fileID: 4517410701237497751}
  m_Layer: 0
  m_Name: Buttons
  m_TagString: Untagged
  m_Icon: {fileID: 0}
  m_NavMeshLayer: 0
  m_StaticEditorFlags: 0
  m_IsActive: 1
--- !u!4 &4517410701237497749
Transform:
  m_ObjectHideFlags: 0
  m_CorrespondingSourceObject: {fileID: 0}
  m_PrefabInstance: {fileID: 0}
  m_PrefabAsset: {fileID: 0}
  m_GameObject: {fileID: 4517410701237497746}
  m_LocalRotation: {x: -0, y: -0, z: -0, w: 1}
  m_LocalPosition: {x: 0.4154, y: -0.104, z: -3.08}
  m_LocalScale: {x: 2.4030604, y: 23.668638, z: 284.0909}
  m_Children:
  - {fileID: 4517410701839443314}
  - {fileID: 4517410700915696005}
  m_Father: {fileID: 4517410701704522374}
  m_RootOrder: 2
  m_LocalEulerAnglesHint: {x: 0, y: 0, z: 0}
--- !u!114 &4517410701237497751
MonoBehaviour:
  m_ObjectHideFlags: 0
  m_CorrespondingSourceObject: {fileID: 0}
  m_PrefabInstance: {fileID: 0}
  m_PrefabAsset: {fileID: 0}
  m_GameObject: {fileID: 4517410701237497746}
  m_Enabled: 1
  m_EditorHideFlags: 0
  m_Script: {fileID: 11500000, guid: cf12ee76e7e00a44a9a84256760020e6, type: 3}
  m_Name: 
  m_EditorClassIdentifier: 
  nodeList:
  - Name: Pressable Button (1)
    Offset: {x: 0, y: 0}
    Radius: 0
    Transform: {fileID: 4517410701839443314}
    Colliders: []
  - Name: Pressable Button (2)
    Offset: {x: 0, y: 0}
    Radius: 0
    Transform: {fileID: 4517410700915696005}
    Colliders: []
  ignoreInactiveTransforms: 1
  sortType: 0
  surfaceType: 1
  orientType: 3
  layout: 2
  anchor: 4
  anchorAlongAxis: 0
  columnAlignment: 0
  rowAlignment: 0
  radius: 2
  radialRange: 60
  distance: 0
  rows: 1
  columns: 2
  cellWidth: 0.033
  cellHeight: 0.04
  assetVersion: 1
--- !u!1 &4517410701704522375
GameObject:
  m_ObjectHideFlags: 0
  m_CorrespondingSourceObject: {fileID: 0}
  m_PrefabInstance: {fileID: 0}
  m_PrefabAsset: {fileID: 0}
  serializedVersion: 6
  m_Component:
  - component: {fileID: 4517410701704522374}
  - component: {fileID: 4517410701704522379}
  - component: {fileID: 4517410701704522380}
  - component: {fileID: 4517410701704522378}
  - component: {fileID: 7277736574314793297}
  - component: {fileID: 4562341129075901848}
  - component: {fileID: 6252373147598018162}
  - component: {fileID: 182967486647910979}
  - component: {fileID: 1912479123192367514}
  m_Layer: 0
  m_Name: TitleBar
  m_TagString: Untagged
  m_Icon: {fileID: 0}
  m_NavMeshLayer: 0
  m_StaticEditorFlags: 0
  m_IsActive: 1
--- !u!4 &4517410701704522374
Transform:
  m_ObjectHideFlags: 0
  m_CorrespondingSourceObject: {fileID: 0}
  m_PrefabInstance: {fileID: 0}
  m_PrefabAsset: {fileID: 0}
  m_GameObject: {fileID: 4517410701704522375}
  m_LocalRotation: {x: -0, y: -0, z: -0, w: 1}
  m_LocalPosition: {x: -0.0683, y: 0.113164544, z: 0.060496032}
  m_LocalScale: {x: 0.83227205, y: 0.0845, z: 0.00704}
  m_Children:
  - {fileID: 4517410700330271608}
  - {fileID: 3174769344064005151}
  - {fileID: 4517410701237497749}
  - {fileID: 3005574495591597439}
  m_Father: {fileID: 4517410701102429036}
  m_RootOrder: 0
  m_LocalEulerAnglesHint: {x: 0, y: 0, z: 0}
--- !u!65 &4517410701704522379
BoxCollider:
  m_ObjectHideFlags: 0
  m_CorrespondingSourceObject: {fileID: 0}
  m_PrefabInstance: {fileID: 0}
  m_PrefabAsset: {fileID: 0}
  m_GameObject: {fileID: 4517410701704522375}
  m_Material: {fileID: 0}
  m_IsTrigger: 0
  m_Enabled: 1
  serializedVersion: 2
  m_Size: {x: 1, y: 0.9999999, z: 9.334387}
  m_Center: {x: -0.000000071616775, y: -0.00000022043137, z: -0.09514915}
--- !u!114 &4517410701704522380
MonoBehaviour:
  m_ObjectHideFlags: 0
  m_CorrespondingSourceObject: {fileID: 0}
  m_PrefabInstance: {fileID: 0}
  m_PrefabAsset: {fileID: 0}
  m_GameObject: {fileID: 4517410701704522375}
  m_Enabled: 1
  m_EditorHideFlags: 0
  m_Script: {fileID: 11500000, guid: 5afd5316c63705643b3daba5a6e923bd, type: 3}
  m_Name: 
  m_EditorClassIdentifier: 
  ShowTetherWhenManipulating: 1
  IsBoundsHandles: 0
--- !u!82 &4517410701704522378
AudioSource:
  m_ObjectHideFlags: 0
  m_CorrespondingSourceObject: {fileID: 0}
  m_PrefabInstance: {fileID: 0}
  m_PrefabAsset: {fileID: 0}
  m_GameObject: {fileID: 4517410701704522375}
  m_Enabled: 1
  serializedVersion: 4
  OutputAudioMixerGroup: {fileID: 0}
  m_audioClip: {fileID: 0}
  m_PlayOnAwake: 1
  m_Volume: 1
  m_Pitch: 1
  Loop: 0
  Mute: 0
  Spatialize: 0
  SpatializePostEffects: 0
  Priority: 128
  DopplerLevel: 1
  MinDistance: 1
  MaxDistance: 500
  Pan2D: 0
  rolloffMode: 0
  BypassEffects: 0
  BypassListenerEffects: 0
  BypassReverbZones: 0
  rolloffCustomCurve:
    serializedVersion: 2
    m_Curve:
    - serializedVersion: 3
      time: 0
      value: 1
      inSlope: 0
      outSlope: 0
      tangentMode: 0
      weightedMode: 0
      inWeight: 0.33333334
      outWeight: 0.33333334
    - serializedVersion: 3
      time: 1
      value: 0
      inSlope: 0
      outSlope: 0
      tangentMode: 0
      weightedMode: 0
      inWeight: 0.33333334
      outWeight: 0.33333334
    m_PreInfinity: 2
    m_PostInfinity: 2
    m_RotationOrder: 4
  panLevelCustomCurve:
    serializedVersion: 2
    m_Curve:
    - serializedVersion: 3
      time: 0
      value: 0
      inSlope: 0
      outSlope: 0
      tangentMode: 0
      weightedMode: 0
      inWeight: 0.33333334
      outWeight: 0.33333334
    m_PreInfinity: 2
    m_PostInfinity: 2
    m_RotationOrder: 4
  spreadCustomCurve:
    serializedVersion: 2
    m_Curve:
    - serializedVersion: 3
      time: 0
      value: 0
      inSlope: 0
      outSlope: 0
      tangentMode: 0
      weightedMode: 0
      inWeight: 0.33333334
      outWeight: 0.33333334
    m_PreInfinity: 2
    m_PostInfinity: 2
    m_RotationOrder: 4
  reverbZoneMixCustomCurve:
    serializedVersion: 2
    m_Curve:
    - serializedVersion: 3
      time: 0
      value: 1
      inSlope: 0
      outSlope: 0
      tangentMode: 0
      weightedMode: 0
      inWeight: 0.33333334
      outWeight: 0.33333334
    m_PreInfinity: 2
    m_PostInfinity: 2
    m_RotationOrder: 4
--- !u!114 &7277736574314793297
MonoBehaviour:
  m_ObjectHideFlags: 0
  m_CorrespondingSourceObject: {fileID: 0}
  m_PrefabInstance: {fileID: 0}
  m_PrefabAsset: {fileID: 0}
  m_GameObject: {fileID: 4517410701704522375}
  m_Enabled: 1
  m_EditorHideFlags: 0
  m_Script: {fileID: 11500000, guid: 181cd563a8349c34ea8978b0bc8d9c7e, type: 3}
  m_Name: 
  m_EditorClassIdentifier: 
  hostTransform: {fileID: 4517410701102429036}
  manipulationType: 3
  twoHandedManipulationType: 7
  allowFarManipulation: 1
  useForcesForNearManipulation: 0
  oneHandRotationModeNear: 1
  oneHandRotationModeFar: 1
  releaseBehavior: -1
  transformSmoothingLogicType:
    reference: Microsoft.MixedReality.Toolkit.Utilities.DefaultTransformSmoothingLogic,
      Microsoft.MixedReality.Toolkit.SDK
  smoothingFar: 1
  smoothingNear: 0
  moveLerpTime: 0.000001
  rotateLerpTime: 0.000001
  scaleLerpTime: 0.000001
  enableConstraints: 1
  constraintsManager: {fileID: 1912479123192367514}
  elasticsManager: {fileID: 0}
  onManipulationStarted:
    m_PersistentCalls:
      m_Calls:
      - m_Target: {fileID: 4517410701704522378}
        m_MethodName: PlayOneShot
        m_Mode: 2
        m_Arguments:
          m_ObjectArgument: {fileID: 8300000, guid: ec33d8a6027c1574390812966f8aef94,
            type: 3}
          m_ObjectArgumentAssemblyTypeName: UnityEngine.AudioClip, UnityEngine
          m_IntArgument: 0
          m_FloatArgument: 0
          m_StringArgument: 
          m_BoolArgument: 0
        m_CallState: 2
      - m_Target: {fileID: 0}
        m_MethodName: HighlightWires
        m_Mode: 1
        m_Arguments:
          m_ObjectArgument: {fileID: 0}
          m_ObjectArgumentAssemblyTypeName: UnityEngine.Object, UnityEngine
          m_IntArgument: 0
          m_FloatArgument: 0
          m_StringArgument: 
          m_BoolArgument: 0
        m_CallState: 2
  onManipulationEnded:
    m_PersistentCalls:
      m_Calls:
      - m_Target: {fileID: 4517410701704522378}
        m_MethodName: PlayOneShot
        m_Mode: 2
        m_Arguments:
          m_ObjectArgument: {fileID: 8300000, guid: 72d90092d0f1a734eb1cfcf71b8fa2e4,
            type: 3}
          m_ObjectArgumentAssemblyTypeName: UnityEngine.AudioClip, UnityEngine
          m_IntArgument: 0
          m_FloatArgument: 0
          m_StringArgument: 
          m_BoolArgument: 0
        m_CallState: 2
      - m_Target: {fileID: 0}
        m_MethodName: UnhighlightWires
        m_Mode: 1
        m_Arguments:
          m_ObjectArgument: {fileID: 0}
          m_ObjectArgumentAssemblyTypeName: UnityEngine.Object, UnityEngine
          m_IntArgument: 0
          m_FloatArgument: 0
          m_StringArgument: 
          m_BoolArgument: 0
        m_CallState: 2
  onHoverEntered:
    m_PersistentCalls:
      m_Calls: []
  onHoverExited:
    m_PersistentCalls:
      m_Calls: []
--- !u!114 &4562341129075901848
MonoBehaviour:
  m_ObjectHideFlags: 0
  m_CorrespondingSourceObject: {fileID: 0}
  m_PrefabInstance: {fileID: 0}
  m_PrefabAsset: {fileID: 0}
  m_GameObject: {fileID: 4517410701704522375}
  m_Enabled: 1
  m_EditorHideFlags: 0
  m_Script: {fileID: 11500000, guid: ea5f249786382754b8635a1375f7b76c, type: 3}
  m_Name: 
  m_EditorClassIdentifier: 
  handType: 1
  proximityType: 3
  faceAway: 1
--- !u!114 &6252373147598018162
MonoBehaviour:
  m_ObjectHideFlags: 0
  m_CorrespondingSourceObject: {fileID: 0}
  m_PrefabInstance: {fileID: 0}
  m_PrefabAsset: {fileID: 0}
  m_GameObject: {fileID: 4517410701704522375}
  m_Enabled: 1
  m_EditorHideFlags: 0
  m_Script: {fileID: 11500000, guid: 5b3e6359c9750ad4fb8a05c9b8704d7b, type: 3}
  m_Name: 
  m_EditorClassIdentifier: 
  handType: 3
  proximityType: 3
  constraintOnRotation: 5
  useLocalSpaceForConstraint: 0
--- !u!114 &182967486647910979
MonoBehaviour:
  m_ObjectHideFlags: 0
  m_CorrespondingSourceObject: {fileID: 0}
  m_PrefabInstance: {fileID: 0}
  m_PrefabAsset: {fileID: 0}
  m_GameObject: {fileID: 4517410701704522375}
  m_Enabled: 1
  m_EditorHideFlags: 0
  m_Script: {fileID: 11500000, guid: 91cf8ec3353d87d409bfce42a1bc6d1c, type: 3}
  m_Name: 
  m_EditorClassIdentifier: 
--- !u!114 &1912479123192367514
MonoBehaviour:
  m_ObjectHideFlags: 0
  m_CorrespondingSourceObject: {fileID: 0}
  m_PrefabInstance: {fileID: 0}
  m_PrefabAsset: {fileID: 0}
  m_GameObject: {fileID: 4517410701704522375}
  m_Enabled: 1
  m_EditorHideFlags: 0
  m_Script: {fileID: 11500000, guid: a98de877dee5fc341b4eb59dfdab266c, type: 3}
  m_Name: 
  m_EditorClassIdentifier: 
  autoConstraintSelection: 1
  selectedConstraints: []
--- !u!1 &5566445864382299297
GameObject:
  m_ObjectHideFlags: 0
  m_CorrespondingSourceObject: {fileID: 0}
  m_PrefabInstance: {fileID: 0}
  m_PrefabAsset: {fileID: 0}
  serializedVersion: 6
  m_Component:
  - component: {fileID: 2715557337174083431}
  - component: {fileID: 7691876765826003666}
  - component: {fileID: 8876823075264034506}
  - component: {fileID: 5499816440667803241}
  - component: {fileID: 5748841146560555646}
  - component: {fileID: 6152986321278729612}
  - component: {fileID: 781702909225997218}
  m_Layer: 0
  m_Name: ContentQuad
  m_TagString: Untagged
  m_Icon: {fileID: 0}
  m_NavMeshLayer: 0
  m_StaticEditorFlags: 0
  m_IsActive: 0
--- !u!4 &2715557337174083431
Transform:
  m_ObjectHideFlags: 0
  m_CorrespondingSourceObject: {fileID: 0}
  m_PrefabInstance: {fileID: 0}
  m_PrefabAsset: {fileID: 0}
  m_GameObject: {fileID: 5566445864382299297}
  m_LocalRotation: {x: -0, y: -0, z: -0, w: 1}
  m_LocalPosition: {x: -0.068314, y: -0.172337, z: 0.058999836}
  m_LocalScale: {x: 0.82840943, y: 0.46715885, z: 0.4592}
  m_Children: []
  m_Father: {fileID: 4517410701102429036}
  m_RootOrder: 1
  m_LocalEulerAnglesHint: {x: 0, y: 0, z: 0}
--- !u!33 &7691876765826003666
MeshFilter:
  m_ObjectHideFlags: 0
  m_CorrespondingSourceObject: {fileID: 0}
  m_PrefabInstance: {fileID: 0}
  m_PrefabAsset: {fileID: 0}
  m_GameObject: {fileID: 5566445864382299297}
  m_Mesh: {fileID: 10210, guid: 0000000000000000e000000000000000, type: 0}
--- !u!23 &8876823075264034506
MeshRenderer:
  m_ObjectHideFlags: 0
  m_CorrespondingSourceObject: {fileID: 0}
  m_PrefabInstance: {fileID: 0}
  m_PrefabAsset: {fileID: 0}
  m_GameObject: {fileID: 5566445864382299297}
  m_Enabled: 1
  m_CastShadows: 1
  m_ReceiveShadows: 1
  m_DynamicOccludee: 1
  m_MotionVectors: 1
  m_LightProbeUsage: 1
  m_ReflectionProbeUsage: 1
  m_RayTracingMode: 2
  m_RenderingLayerMask: 4294967295
  m_RendererPriority: 0
  m_Materials:
  - {fileID: 2100000, guid: a6066557d0b74ca4f8c1b9bc571e33e1, type: 2}
  m_StaticBatchInfo:
    firstSubMesh: 0
    subMeshCount: 0
  m_StaticBatchRoot: {fileID: 0}
  m_ProbeAnchor: {fileID: 0}
  m_LightProbeVolumeOverride: {fileID: 0}
  m_ScaleInLightmap: 1
  m_ReceiveGI: 1
  m_PreserveUVs: 0
  m_IgnoreNormalsForChartDetection: 0
  m_ImportantGI: 0
  m_StitchLightmapSeams: 0
  m_SelectedEditorRenderState: 3
  m_MinimumChartSize: 4
  m_AutoUVMaxDistance: 0.5
  m_AutoUVMaxAngle: 89
  m_LightmapParameters: {fileID: 0}
  m_SortingLayerID: 0
  m_SortingLayer: 0
  m_SortingOrder: 0
--- !u!65 &5499816440667803241
BoxCollider:
  m_ObjectHideFlags: 0
  m_CorrespondingSourceObject: {fileID: 0}
  m_PrefabInstance: {fileID: 0}
  m_PrefabAsset: {fileID: 0}
  m_GameObject: {fileID: 5566445864382299297}
  m_Material: {fileID: 0}
  m_IsTrigger: 0
  m_Enabled: 0
  serializedVersion: 2
  m_Size: {x: 1, y: 0.99999946, z: 0.6223597}
  m_Center: {x: -0.00000003580839, y: -0.00000047640293, z: 0.16594146}
--- !u!114 &5748841146560555646
MonoBehaviour:
  m_ObjectHideFlags: 0
  m_CorrespondingSourceObject: {fileID: 0}
  m_PrefabInstance: {fileID: 0}
  m_PrefabAsset: {fileID: 0}
  m_GameObject: {fileID: 5566445864382299297}
  m_Enabled: 0
  m_EditorHideFlags: 0
  m_Script: {fileID: 11500000, guid: 98c748f3768ab714a8449b60fb9edc5c, type: 3}
  m_Name: 
  m_EditorClassIdentifier: 
  eventsToReceive: 0
  debounceThreshold: 0.01
  localForward: {x: 0, y: 0, z: -1}
  localUp: {x: 0, y: 1, z: 0}
  localCenter: {x: -0.00000003580839, y: -0.00000047640293, z: -0.14523838}
  bounds: {x: 1, y: 0.99999946}
  touchableCollider: {fileID: 5499816440667803241}
--- !u!114 &6152986321278729612
MonoBehaviour:
  m_ObjectHideFlags: 0
  m_CorrespondingSourceObject: {fileID: 0}
  m_PrefabInstance: {fileID: 0}
  m_PrefabAsset: {fileID: 0}
  m_GameObject: {fileID: 5566445864382299297}
  m_Enabled: 0
  m_EditorHideFlags: 0
  m_Script: {fileID: 11500000, guid: ef1a57c42d928dc49b7c947623b2b2ef, type: 3}
  m_Name: 
  m_EditorClassIdentifier: 
  focusEnabled: 1
  isEnabled: 1
  enableZoom: 1
  lockHorizontal: 1
  lockVertical: 0
  unlimitedPan: 1
  maxPanHorizontal: 2
  maxPanVertical: 2
  minScale: 0.2
  maxScale: 1.5
  momentumHorizontal: 0.9
  momentumVertical: 0.9
  panZoomSmoothing: 80
  centerPoint: {fileID: 0}
  leftPoint: {fileID: 0}
  rightPoint: {fileID: 0}
  proximityLightCenterColor: {r: 0.25, g: 0.25, b: 0.25, a: 0}
  currentScale: 0
  PanStarted:
    m_PersistentCalls:
      m_Calls:
      - m_Target: {fileID: 781702909225997218}
        m_MethodName: PlayOneShot
        m_Mode: 2
        m_Arguments:
          m_ObjectArgument: {fileID: 8300000, guid: ac992f1ec8cfba145b10655b334ec711,
            type: 3}
          m_ObjectArgumentAssemblyTypeName: UnityEngine.AudioClip, UnityEngine
          m_IntArgument: 0
          m_FloatArgument: 0
          m_StringArgument: 
          m_BoolArgument: 0
        m_CallState: 2
  PanStopped:
    m_PersistentCalls:
      m_Calls:
      - m_Target: {fileID: 781702909225997218}
        m_MethodName: PlayOneShot
        m_Mode: 2
        m_Arguments:
          m_ObjectArgument: {fileID: 8300000, guid: 45a90682f74bb0c41b65994c63b74e60,
            type: 3}
          m_ObjectArgumentAssemblyTypeName: UnityEngine.AudioClip, UnityEngine
          m_IntArgument: 0
          m_FloatArgument: 0
          m_StringArgument: 
          m_BoolArgument: 0
        m_CallState: 2
  PanUpdated:
    m_PersistentCalls:
      m_Calls: []
--- !u!82 &781702909225997218
AudioSource:
  m_ObjectHideFlags: 0
  m_CorrespondingSourceObject: {fileID: 0}
  m_PrefabInstance: {fileID: 0}
  m_PrefabAsset: {fileID: 0}
  m_GameObject: {fileID: 5566445864382299297}
  m_Enabled: 0
  serializedVersion: 4
  OutputAudioMixerGroup: {fileID: 0}
  m_audioClip: {fileID: 0}
  m_PlayOnAwake: 1
  m_Volume: 1
  m_Pitch: 1
  Loop: 0
  Mute: 0
  Spatialize: 0
  SpatializePostEffects: 0
  Priority: 128
  DopplerLevel: 1
  MinDistance: 1
  MaxDistance: 500
  Pan2D: 0
  rolloffMode: 0
  BypassEffects: 0
  BypassListenerEffects: 0
  BypassReverbZones: 0
  rolloffCustomCurve:
    serializedVersion: 2
    m_Curve:
    - serializedVersion: 3
      time: 0
      value: 1
      inSlope: 0
      outSlope: 0
      tangentMode: 0
      weightedMode: 0
      inWeight: 0.33333334
      outWeight: 0.33333334
    - serializedVersion: 3
      time: 1
      value: 0
      inSlope: 0
      outSlope: 0
      tangentMode: 0
      weightedMode: 0
      inWeight: 0.33333334
      outWeight: 0.33333334
    m_PreInfinity: 2
    m_PostInfinity: 2
    m_RotationOrder: 4
  panLevelCustomCurve:
    serializedVersion: 2
    m_Curve:
    - serializedVersion: 3
      time: 0
      value: 0
      inSlope: 0
      outSlope: 0
      tangentMode: 0
      weightedMode: 0
      inWeight: 0.33333334
      outWeight: 0.33333334
    m_PreInfinity: 2
    m_PostInfinity: 2
    m_RotationOrder: 4
  spreadCustomCurve:
    serializedVersion: 2
    m_Curve:
    - serializedVersion: 3
      time: 0
      value: 0
      inSlope: 0
      outSlope: 0
      tangentMode: 0
      weightedMode: 0
      inWeight: 0.33333334
      outWeight: 0.33333334
    m_PreInfinity: 2
    m_PostInfinity: 2
    m_RotationOrder: 4
  reverbZoneMixCustomCurve:
    serializedVersion: 2
    m_Curve:
    - serializedVersion: 3
      time: 0
      value: 1
      inSlope: 0
      outSlope: 0
      tangentMode: 0
      weightedMode: 0
      inWeight: 0.33333334
      outWeight: 0.33333334
    m_PreInfinity: 2
    m_PostInfinity: 2
    m_RotationOrder: 4
--- !u!1 &6144911380217217556
GameObject:
  m_ObjectHideFlags: 0
  m_CorrespondingSourceObject: {fileID: 0}
  m_PrefabInstance: {fileID: 0}
  m_PrefabAsset: {fileID: 0}
  serializedVersion: 6
  m_Component:
  - component: {fileID: 6144911380217217554}
  - component: {fileID: 6144911380217217557}
  m_Layer: 0
  m_Name: Preview
  m_TagString: Untagged
  m_Icon: {fileID: 0}
  m_NavMeshLayer: 0
  m_StaticEditorFlags: 0
  m_IsActive: 1
--- !u!4 &6144911380217217554
Transform:
  m_ObjectHideFlags: 0
  m_CorrespondingSourceObject: {fileID: 0}
  m_PrefabInstance: {fileID: 0}
  m_PrefabAsset: {fileID: 0}
  m_GameObject: {fileID: 6144911380217217556}
  m_LocalRotation: {x: -0, y: -0, z: -0, w: 1}
  m_LocalPosition: {x: -0.4599, y: -0.3885, z: 0.058999836}
  m_LocalScale: {x: 0.02, y: 0.02, z: 0.25000003}
  m_Children: []
  m_Father: {fileID: 4517410701102429036}
  m_RootOrder: 3
  m_LocalEulerAnglesHint: {x: 0, y: 0, z: 0}
--- !u!212 &6144911380217217557
SpriteRenderer:
  m_ObjectHideFlags: 0
  m_CorrespondingSourceObject: {fileID: 0}
  m_PrefabInstance: {fileID: 0}
  m_PrefabAsset: {fileID: 0}
  m_GameObject: {fileID: 6144911380217217556}
  m_Enabled: 1
  m_CastShadows: 0
  m_ReceiveShadows: 0
  m_DynamicOccludee: 1
  m_MotionVectors: 1
  m_LightProbeUsage: 1
  m_ReflectionProbeUsage: 1
  m_RayTracingMode: 0
  m_RenderingLayerMask: 1
  m_RendererPriority: 0
  m_Materials:
  - {fileID: 10754, guid: 0000000000000000f000000000000000, type: 0}
  m_StaticBatchInfo:
    firstSubMesh: 0
    subMeshCount: 0
  m_StaticBatchRoot: {fileID: 0}
  m_ProbeAnchor: {fileID: 0}
  m_LightProbeVolumeOverride: {fileID: 0}
  m_ScaleInLightmap: 1
  m_ReceiveGI: 1
  m_PreserveUVs: 0
  m_IgnoreNormalsForChartDetection: 0
  m_ImportantGI: 0
  m_StitchLightmapSeams: 1
  m_SelectedEditorRenderState: 0
  m_MinimumChartSize: 4
  m_AutoUVMaxDistance: 0.5
  m_AutoUVMaxAngle: 89
  m_LightmapParameters: {fileID: 0}
  m_SortingLayerID: 0
  m_SortingLayer: 0
  m_SortingOrder: 0
  m_Sprite: {fileID: 21300000, guid: 7e29bd78484de85479d1437e5727d5a9, type: 3}
  m_Color: {r: 1, g: 1, b: 1, a: 1}
  m_FlipX: 0
  m_FlipY: 0
  m_DrawMode: 0
  m_Size: {x: 1.28, y: 1.28}
  m_AdaptiveModeThreshold: 0.5
  m_SpriteTileMode: 0
  m_WasSpriteAssigned: 1
  m_MaskInteraction: 0
  m_SpriteSortPoint: 0
--- !u!1 &6408308043443149265
GameObject:
  m_ObjectHideFlags: 0
  m_CorrespondingSourceObject: {fileID: 0}
  m_PrefabInstance: {fileID: 0}
  m_PrefabAsset: {fileID: 0}
  serializedVersion: 6
  m_Component:
  - component: {fileID: 8346423558657211684}
  - component: {fileID: 1750705247196507542}
  - component: {fileID: 3784975221822013306}
  m_Layer: 0
  m_Name: ContentBackPlate
  m_TagString: Untagged
  m_Icon: {fileID: 0}
  m_NavMeshLayer: 0
  m_StaticEditorFlags: 0
  m_IsActive: 1
--- !u!4 &8346423558657211684
Transform:
  m_ObjectHideFlags: 0
  m_CorrespondingSourceObject: {fileID: 0}
  m_PrefabInstance: {fileID: 0}
  m_PrefabAsset: {fileID: 0}
  m_GameObject: {fileID: 6408308043443149265}
  m_LocalRotation: {x: -0, y: -0, z: -0, w: 1}
  m_LocalPosition: {x: -0.0683, y: -0.1723187, z: 0.060496032}
  m_LocalScale: {x: 0.83226997, y: 0.47105, z: 0.0352}
  m_Children: []
  m_Father: {fileID: 4517410701102429036}
  m_RootOrder: 2
  m_LocalEulerAnglesHint: {x: 0, y: 0, z: 0}
--- !u!33 &1750705247196507542
MeshFilter:
  m_ObjectHideFlags: 0
  m_CorrespondingSourceObject: {fileID: 0}
  m_PrefabInstance: {fileID: 0}
  m_PrefabAsset: {fileID: 0}
  m_GameObject: {fileID: 6408308043443149265}
  m_Mesh: {fileID: 10210, guid: 0000000000000000e000000000000000, type: 0}
--- !u!23 &3784975221822013306
MeshRenderer:
  m_ObjectHideFlags: 0
  m_CorrespondingSourceObject: {fileID: 0}
  m_PrefabInstance: {fileID: 0}
  m_PrefabAsset: {fileID: 0}
  m_GameObject: {fileID: 6408308043443149265}
  m_Enabled: 1
  m_CastShadows: 1
  m_ReceiveShadows: 1
  m_DynamicOccludee: 1
  m_MotionVectors: 1
  m_LightProbeUsage: 1
  m_ReflectionProbeUsage: 1
  m_RayTracingMode: 2
  m_RenderingLayerMask: 1
  m_RendererPriority: 0
  m_Materials:
  - {fileID: 2100000, guid: ec72a3a105768f746b556a8dfdae61a8, type: 2}
  m_StaticBatchInfo:
    firstSubMesh: 0
    subMeshCount: 0
  m_StaticBatchRoot: {fileID: 0}
  m_ProbeAnchor: {fileID: 0}
  m_LightProbeVolumeOverride: {fileID: 0}
  m_ScaleInLightmap: 1
  m_ReceiveGI: 1
  m_PreserveUVs: 0
  m_IgnoreNormalsForChartDetection: 0
  m_ImportantGI: 0
  m_StitchLightmapSeams: 0
  m_SelectedEditorRenderState: 3
  m_MinimumChartSize: 4
  m_AutoUVMaxDistance: 0.5
  m_AutoUVMaxAngle: 89
  m_LightmapParameters: {fileID: 0}
  m_SortingLayerID: 0
  m_SortingLayer: 0
  m_SortingOrder: 0
--- !u!1 &9132475543591531782
GameObject:
  m_ObjectHideFlags: 0
  m_CorrespondingSourceObject: {fileID: 0}
  m_PrefabInstance: {fileID: 0}
  m_PrefabAsset: {fileID: 0}
  serializedVersion: 6
  m_Component:
  - component: {fileID: 3005574495591597439}
  - component: {fileID: 2603180943696597051}
  - component: {fileID: 4941830524861269319}
  m_Layer: 0
  m_Name: CarryModeOutline
  m_TagString: Untagged
  m_Icon: {fileID: 0}
  m_NavMeshLayer: 0
  m_StaticEditorFlags: 0
  m_IsActive: 0
--- !u!4 &3005574495591597439
Transform:
  m_ObjectHideFlags: 0
  m_CorrespondingSourceObject: {fileID: 0}
  m_PrefabInstance: {fileID: 0}
  m_PrefabAsset: {fileID: 0}
  m_GameObject: {fileID: 9132475543591531782}
  m_LocalRotation: {x: 0, y: 0, z: 0, w: 1}
  m_LocalPosition: {x: 0, y: -2.855, z: 7.8}
  m_LocalScale: {x: 1.075, y: 7.1279716, z: 5}
  m_Children: []
  m_Father: {fileID: 4517410701704522374}
  m_RootOrder: 3
  m_LocalEulerAnglesHint: {x: 0, y: 0, z: 0}
--- !u!33 &2603180943696597051
MeshFilter:
  m_ObjectHideFlags: 0
  m_CorrespondingSourceObject: {fileID: 0}
  m_PrefabInstance: {fileID: 0}
  m_PrefabAsset: {fileID: 0}
  m_GameObject: {fileID: 9132475543591531782}
  m_Mesh: {fileID: 10210, guid: 0000000000000000e000000000000000, type: 0}
--- !u!23 &4941830524861269319
MeshRenderer:
  m_ObjectHideFlags: 0
  m_CorrespondingSourceObject: {fileID: 0}
  m_PrefabInstance: {fileID: 0}
  m_PrefabAsset: {fileID: 0}
  m_GameObject: {fileID: 9132475543591531782}
  m_Enabled: 1
  m_CastShadows: 1
  m_ReceiveShadows: 1
  m_DynamicOccludee: 1
  m_MotionVectors: 1
  m_LightProbeUsage: 1
  m_ReflectionProbeUsage: 1
  m_RayTracingMode: 2
  m_RenderingLayerMask: 1
  m_RendererPriority: 0
  m_Materials:
  - {fileID: 2100000, guid: 15445dbe491e8f9428ad63168cae68eb, type: 2}
  m_StaticBatchInfo:
    firstSubMesh: 0
    subMeshCount: 0
  m_StaticBatchRoot: {fileID: 0}
  m_ProbeAnchor: {fileID: 0}
  m_LightProbeVolumeOverride: {fileID: 0}
  m_ScaleInLightmap: 1
  m_ReceiveGI: 1
  m_PreserveUVs: 0
  m_IgnoreNormalsForChartDetection: 0
  m_ImportantGI: 0
  m_StitchLightmapSeams: 0
  m_SelectedEditorRenderState: 3
  m_MinimumChartSize: 4
  m_AutoUVMaxDistance: 0.5
  m_AutoUVMaxAngle: 89
  m_LightmapParameters: {fileID: 0}
  m_SortingLayerID: 0
  m_SortingLayer: 0
  m_SortingOrder: 0
--- !u!1001 &4517410700978150749
PrefabInstance:
  m_ObjectHideFlags: 0
  serializedVersion: 2
  m_Modification:
    m_TransformParent: {fileID: 4517410701237497749}
    m_Modifications:
    - target: {fileID: 316800718, guid: 45fd0ad89d6d17b4fbe68eb48dbe9de9, type: 3}
      propertyPath: m_Name
      value: Pressable Button (1)
      objectReference: {fileID: 0}
    - target: {fileID: 937783102, guid: 45fd0ad89d6d17b4fbe68eb48dbe9de9, type: 3}
      propertyPath: m_text
      value: Follow Me
      objectReference: {fileID: 0}
    - target: {fileID: 937783102, guid: 45fd0ad89d6d17b4fbe68eb48dbe9de9, type: 3}
      propertyPath: m_textAlignment
      value: 65535
      objectReference: {fileID: 0}
    - target: {fileID: 937783102, guid: 45fd0ad89d6d17b4fbe68eb48dbe9de9, type: 3}
      propertyPath: m_TextStyleHashCode
      value: -1183493901
      objectReference: {fileID: 0}
    - target: {fileID: 937783102, guid: 45fd0ad89d6d17b4fbe68eb48dbe9de9, type: 3}
      propertyPath: m_VerticalAlignment
      value: 512
      objectReference: {fileID: 0}
    - target: {fileID: 937783102, guid: 45fd0ad89d6d17b4fbe68eb48dbe9de9, type: 3}
      propertyPath: m_textInfo.lineCount
      value: 0
      objectReference: {fileID: 0}
    - target: {fileID: 937783102, guid: 45fd0ad89d6d17b4fbe68eb48dbe9de9, type: 3}
      propertyPath: m_textInfo.pageCount
      value: 0
      objectReference: {fileID: 0}
    - target: {fileID: 937783102, guid: 45fd0ad89d6d17b4fbe68eb48dbe9de9, type: 3}
      propertyPath: m_textInfo.wordCount
      value: 0
      objectReference: {fileID: 0}
    - target: {fileID: 937783102, guid: 45fd0ad89d6d17b4fbe68eb48dbe9de9, type: 3}
      propertyPath: m_HorizontalAlignment
      value: 2
      objectReference: {fileID: 0}
    - target: {fileID: 937783102, guid: 45fd0ad89d6d17b4fbe68eb48dbe9de9, type: 3}
      propertyPath: m_textInfo.spaceCount
      value: 0
      objectReference: {fileID: 0}
    - target: {fileID: 937783102, guid: 45fd0ad89d6d17b4fbe68eb48dbe9de9, type: 3}
      propertyPath: m_textInfo.characterCount
      value: 0
      objectReference: {fileID: 0}
    - target: {fileID: 937783104, guid: 45fd0ad89d6d17b4fbe68eb48dbe9de9, type: 3}
      propertyPath: m_Mesh
      value: 
      objectReference: {fileID: 0}
    - target: {fileID: 1911902820, guid: 45fd0ad89d6d17b4fbe68eb48dbe9de9, type: 3}
      propertyPath: m_Materials.Array.data[0]
      value: 
      objectReference: {fileID: 2100000, guid: fa419ab56051229449e3b813df8f295f, type: 2}
    - target: {fileID: 1944713263, guid: 45fd0ad89d6d17b4fbe68eb48dbe9de9, type: 3}
      propertyPath: m_RootOrder
      value: 0
      objectReference: {fileID: 0}
    - target: {fileID: 1944713263, guid: 45fd0ad89d6d17b4fbe68eb48dbe9de9, type: 3}
      propertyPath: m_LocalPosition.x
      value: -0.0165
      objectReference: {fileID: 0}
    - target: {fileID: 1944713263, guid: 45fd0ad89d6d17b4fbe68eb48dbe9de9, type: 3}
      propertyPath: m_LocalPosition.y
      value: 0
      objectReference: {fileID: 0}
    - target: {fileID: 1944713263, guid: 45fd0ad89d6d17b4fbe68eb48dbe9de9, type: 3}
      propertyPath: m_LocalPosition.z
      value: 0
      objectReference: {fileID: 0}
    - target: {fileID: 1944713263, guid: 45fd0ad89d6d17b4fbe68eb48dbe9de9, type: 3}
      propertyPath: m_LocalRotation.w
      value: 1
      objectReference: {fileID: 0}
    - target: {fileID: 1944713263, guid: 45fd0ad89d6d17b4fbe68eb48dbe9de9, type: 3}
      propertyPath: m_LocalRotation.x
      value: -0
      objectReference: {fileID: 0}
    - target: {fileID: 1944713263, guid: 45fd0ad89d6d17b4fbe68eb48dbe9de9, type: 3}
      propertyPath: m_LocalRotation.y
      value: -0
      objectReference: {fileID: 0}
    - target: {fileID: 1944713263, guid: 45fd0ad89d6d17b4fbe68eb48dbe9de9, type: 3}
      propertyPath: m_LocalRotation.z
      value: -0
      objectReference: {fileID: 0}
    - target: {fileID: 1944713263, guid: 45fd0ad89d6d17b4fbe68eb48dbe9de9, type: 3}
      propertyPath: m_LocalEulerAnglesHint.x
      value: 0
      objectReference: {fileID: 0}
    - target: {fileID: 1944713263, guid: 45fd0ad89d6d17b4fbe68eb48dbe9de9, type: 3}
      propertyPath: m_LocalEulerAnglesHint.y
      value: 0
      objectReference: {fileID: 0}
    - target: {fileID: 1944713263, guid: 45fd0ad89d6d17b4fbe68eb48dbe9de9, type: 3}
      propertyPath: m_LocalEulerAnglesHint.z
      value: 0
      objectReference: {fileID: 0}
    - target: {fileID: 2406973081839446391, guid: 45fd0ad89d6d17b4fbe68eb48dbe9de9,
        type: 3}
      propertyPath: m_Mesh
      value: 
      objectReference: {fileID: 0}
    - target: {fileID: 2931093143639342067, guid: 45fd0ad89d6d17b4fbe68eb48dbe9de9,
        type: 3}
      propertyPath: m_LocalScale.x
      value: 0.036742404
      objectReference: {fileID: 0}
    - target: {fileID: 7440800412470431853, guid: 45fd0ad89d6d17b4fbe68eb48dbe9de9,
        type: 3}
      propertyPath: OnClick.m_PersistentCalls.m_Calls.Array.data[0].m_Target
      value: 
      objectReference: {fileID: 4517410701102429039}
    - target: {fileID: 7440800412470431853, guid: 45fd0ad89d6d17b4fbe68eb48dbe9de9,
        type: 3}
      propertyPath: OnClick.m_PersistentCalls.m_Calls.Array.data[0].m_MethodName
      value: ToggleFollowMeBehavior
      objectReference: {fileID: 0}
    - target: {fileID: 7652376644636595447, guid: 45fd0ad89d6d17b4fbe68eb48dbe9de9,
        type: 3}
      propertyPath: iconQuadTexture
      value: 
      objectReference: {fileID: 2800000, guid: bd30f98596e69f7469fda20a47760dd1, type: 3}
    - target: {fileID: 9181818329810857364, guid: 45fd0ad89d6d17b4fbe68eb48dbe9de9,
        type: 3}
      propertyPath: m_text
      value: Say "Follow Me"
      objectReference: {fileID: 0}
    - target: {fileID: 9181818329810857364, guid: 45fd0ad89d6d17b4fbe68eb48dbe9de9,
        type: 3}
      propertyPath: m_textAlignment
      value: 65535
      objectReference: {fileID: 0}
    - target: {fileID: 9181818329810857364, guid: 45fd0ad89d6d17b4fbe68eb48dbe9de9,
        type: 3}
      propertyPath: m_TextStyleHashCode
      value: -1183493901
      objectReference: {fileID: 0}
    - target: {fileID: 9181818329810857364, guid: 45fd0ad89d6d17b4fbe68eb48dbe9de9,
        type: 3}
      propertyPath: m_VerticalAlignment
      value: 512
      objectReference: {fileID: 0}
    - target: {fileID: 9181818329810857364, guid: 45fd0ad89d6d17b4fbe68eb48dbe9de9,
        type: 3}
      propertyPath: m_textInfo.lineCount
      value: 0
      objectReference: {fileID: 0}
    - target: {fileID: 9181818329810857364, guid: 45fd0ad89d6d17b4fbe68eb48dbe9de9,
        type: 3}
      propertyPath: m_textInfo.pageCount
      value: 0
      objectReference: {fileID: 0}
    - target: {fileID: 9181818329810857364, guid: 45fd0ad89d6d17b4fbe68eb48dbe9de9,
        type: 3}
      propertyPath: m_textInfo.wordCount
      value: 0
      objectReference: {fileID: 0}
    - target: {fileID: 9181818329810857364, guid: 45fd0ad89d6d17b4fbe68eb48dbe9de9,
        type: 3}
      propertyPath: m_HorizontalAlignment
      value: 2
      objectReference: {fileID: 0}
    - target: {fileID: 9181818329810857364, guid: 45fd0ad89d6d17b4fbe68eb48dbe9de9,
        type: 3}
      propertyPath: m_textInfo.spaceCount
      value: 0
      objectReference: {fileID: 0}
    - target: {fileID: 9181818329810857364, guid: 45fd0ad89d6d17b4fbe68eb48dbe9de9,
        type: 3}
      propertyPath: m_havePropertiesChanged
      value: 0
      objectReference: {fileID: 0}
    - target: {fileID: 9181818329810857364, guid: 45fd0ad89d6d17b4fbe68eb48dbe9de9,
        type: 3}
      propertyPath: m_isInputParsingRequired
      value: 0
      objectReference: {fileID: 0}
    - target: {fileID: 9181818329810857364, guid: 45fd0ad89d6d17b4fbe68eb48dbe9de9,
        type: 3}
      propertyPath: m_textInfo.characterCount
      value: 0
      objectReference: {fileID: 0}
    m_RemovedComponents: []
  m_SourcePrefab: {fileID: 100100000, guid: 45fd0ad89d6d17b4fbe68eb48dbe9de9, type: 3}
--- !u!4 &4517410701839443314 stripped
Transform:
  m_CorrespondingSourceObject: {fileID: 1944713263, guid: 45fd0ad89d6d17b4fbe68eb48dbe9de9,
    type: 3}
  m_PrefabInstance: {fileID: 4517410700978150749}
  m_PrefabAsset: {fileID: 0}
--- !u!1001 &4517410701765581226
PrefabInstance:
  m_ObjectHideFlags: 0
  serializedVersion: 2
  m_Modification:
    m_TransformParent: {fileID: 4517410701237497749}
    m_Modifications:
    - target: {fileID: 316800718, guid: 45fd0ad89d6d17b4fbe68eb48dbe9de9, type: 3}
      propertyPath: m_Name
      value: Pressable Button (2)
      objectReference: {fileID: 0}
    - target: {fileID: 937783102, guid: 45fd0ad89d6d17b4fbe68eb48dbe9de9, type: 3}
      propertyPath: m_text
      value: Close
      objectReference: {fileID: 0}
    - target: {fileID: 937783102, guid: 45fd0ad89d6d17b4fbe68eb48dbe9de9, type: 3}
      propertyPath: m_textAlignment
      value: 65535
      objectReference: {fileID: 0}
    - target: {fileID: 937783102, guid: 45fd0ad89d6d17b4fbe68eb48dbe9de9, type: 3}
      propertyPath: m_TextStyleHashCode
      value: -1183493901
      objectReference: {fileID: 0}
    - target: {fileID: 937783102, guid: 45fd0ad89d6d17b4fbe68eb48dbe9de9, type: 3}
      propertyPath: m_VerticalAlignment
      value: 512
      objectReference: {fileID: 0}
    - target: {fileID: 937783102, guid: 45fd0ad89d6d17b4fbe68eb48dbe9de9, type: 3}
      propertyPath: m_textInfo.lineCount
      value: 0
      objectReference: {fileID: 0}
    - target: {fileID: 937783102, guid: 45fd0ad89d6d17b4fbe68eb48dbe9de9, type: 3}
      propertyPath: m_textInfo.pageCount
      value: 0
      objectReference: {fileID: 0}
    - target: {fileID: 937783102, guid: 45fd0ad89d6d17b4fbe68eb48dbe9de9, type: 3}
      propertyPath: m_textInfo.wordCount
      value: 0
      objectReference: {fileID: 0}
    - target: {fileID: 937783102, guid: 45fd0ad89d6d17b4fbe68eb48dbe9de9, type: 3}
      propertyPath: m_HorizontalAlignment
      value: 2
      objectReference: {fileID: 0}
    - target: {fileID: 937783102, guid: 45fd0ad89d6d17b4fbe68eb48dbe9de9, type: 3}
      propertyPath: m_textInfo.characterCount
      value: 0
      objectReference: {fileID: 0}
    - target: {fileID: 937783104, guid: 45fd0ad89d6d17b4fbe68eb48dbe9de9, type: 3}
      propertyPath: m_Mesh
      value: 
      objectReference: {fileID: 0}
    - target: {fileID: 1911902820, guid: 45fd0ad89d6d17b4fbe68eb48dbe9de9, type: 3}
      propertyPath: m_Materials.Array.data[0]
      value: 
      objectReference: {fileID: 2100000, guid: fa419ab56051229449e3b813df8f295f, type: 2}
    - target: {fileID: 1944713263, guid: 45fd0ad89d6d17b4fbe68eb48dbe9de9, type: 3}
      propertyPath: m_RootOrder
      value: 1
      objectReference: {fileID: 0}
    - target: {fileID: 1944713263, guid: 45fd0ad89d6d17b4fbe68eb48dbe9de9, type: 3}
      propertyPath: m_LocalPosition.x
      value: 0.0165
      objectReference: {fileID: 0}
    - target: {fileID: 1944713263, guid: 45fd0ad89d6d17b4fbe68eb48dbe9de9, type: 3}
      propertyPath: m_LocalPosition.y
      value: 0
      objectReference: {fileID: 0}
    - target: {fileID: 1944713263, guid: 45fd0ad89d6d17b4fbe68eb48dbe9de9, type: 3}
      propertyPath: m_LocalPosition.z
      value: 0
      objectReference: {fileID: 0}
    - target: {fileID: 1944713263, guid: 45fd0ad89d6d17b4fbe68eb48dbe9de9, type: 3}
      propertyPath: m_LocalRotation.w
      value: 1
      objectReference: {fileID: 0}
    - target: {fileID: 1944713263, guid: 45fd0ad89d6d17b4fbe68eb48dbe9de9, type: 3}
      propertyPath: m_LocalRotation.x
      value: -0
      objectReference: {fileID: 0}
    - target: {fileID: 1944713263, guid: 45fd0ad89d6d17b4fbe68eb48dbe9de9, type: 3}
      propertyPath: m_LocalRotation.y
      value: -0
      objectReference: {fileID: 0}
    - target: {fileID: 1944713263, guid: 45fd0ad89d6d17b4fbe68eb48dbe9de9, type: 3}
      propertyPath: m_LocalRotation.z
      value: -0
      objectReference: {fileID: 0}
    - target: {fileID: 1944713263, guid: 45fd0ad89d6d17b4fbe68eb48dbe9de9, type: 3}
      propertyPath: m_LocalEulerAnglesHint.x
      value: 0
      objectReference: {fileID: 0}
    - target: {fileID: 1944713263, guid: 45fd0ad89d6d17b4fbe68eb48dbe9de9, type: 3}
      propertyPath: m_LocalEulerAnglesHint.y
      value: 0
      objectReference: {fileID: 0}
    - target: {fileID: 1944713263, guid: 45fd0ad89d6d17b4fbe68eb48dbe9de9, type: 3}
      propertyPath: m_LocalEulerAnglesHint.z
      value: 0
      objectReference: {fileID: 0}
    - target: {fileID: 2406973081839446391, guid: 45fd0ad89d6d17b4fbe68eb48dbe9de9,
        type: 3}
      propertyPath: m_Mesh
      value: 
      objectReference: {fileID: 0}
    - target: {fileID: 2931093143639342067, guid: 45fd0ad89d6d17b4fbe68eb48dbe9de9,
        type: 3}
      propertyPath: m_LocalScale.x
      value: 0.028321281
      objectReference: {fileID: 0}
    - target: {fileID: 7440800412470431853, guid: 45fd0ad89d6d17b4fbe68eb48dbe9de9,
        type: 3}
      propertyPath: OnClick.m_PersistentCalls.m_Calls.Array.data[0].m_Mode
      value: 6
      objectReference: {fileID: 0}
    - target: {fileID: 7440800412470431853, guid: 45fd0ad89d6d17b4fbe68eb48dbe9de9,
        type: 3}
      propertyPath: OnClick.m_PersistentCalls.m_Calls.Array.data[0].m_Target
      value: 
      objectReference: {fileID: 4517410701102429037}
    - target: {fileID: 7440800412470431853, guid: 45fd0ad89d6d17b4fbe68eb48dbe9de9,
        type: 3}
      propertyPath: OnClick.m_PersistentCalls.m_Calls.Array.data[0].m_MethodName
      value: SetActive
      objectReference: {fileID: 0}
    - target: {fileID: 7652376644636595447, guid: 45fd0ad89d6d17b4fbe68eb48dbe9de9,
        type: 3}
      propertyPath: iconQuadTexture
      value: 
      objectReference: {fileID: 2800000, guid: 8d0274d8bc6a17844a08b493920d9491, type: 3}
    - target: {fileID: 9181818329810857364, guid: 45fd0ad89d6d17b4fbe68eb48dbe9de9,
        type: 3}
      propertyPath: m_text
      value: Say "Close"
      objectReference: {fileID: 0}
    - target: {fileID: 9181818329810857364, guid: 45fd0ad89d6d17b4fbe68eb48dbe9de9,
        type: 3}
      propertyPath: m_textAlignment
      value: 65535
      objectReference: {fileID: 0}
    - target: {fileID: 9181818329810857364, guid: 45fd0ad89d6d17b4fbe68eb48dbe9de9,
        type: 3}
      propertyPath: m_TextStyleHashCode
      value: -1183493901
      objectReference: {fileID: 0}
    - target: {fileID: 9181818329810857364, guid: 45fd0ad89d6d17b4fbe68eb48dbe9de9,
        type: 3}
      propertyPath: m_VerticalAlignment
      value: 512
      objectReference: {fileID: 0}
    - target: {fileID: 9181818329810857364, guid: 45fd0ad89d6d17b4fbe68eb48dbe9de9,
        type: 3}
      propertyPath: m_textInfo.lineCount
      value: 0
      objectReference: {fileID: 0}
    - target: {fileID: 9181818329810857364, guid: 45fd0ad89d6d17b4fbe68eb48dbe9de9,
        type: 3}
      propertyPath: m_textInfo.pageCount
      value: 0
      objectReference: {fileID: 0}
    - target: {fileID: 9181818329810857364, guid: 45fd0ad89d6d17b4fbe68eb48dbe9de9,
        type: 3}
      propertyPath: m_textInfo.wordCount
      value: 0
      objectReference: {fileID: 0}
    - target: {fileID: 9181818329810857364, guid: 45fd0ad89d6d17b4fbe68eb48dbe9de9,
        type: 3}
      propertyPath: m_HorizontalAlignment
      value: 2
      objectReference: {fileID: 0}
    - target: {fileID: 9181818329810857364, guid: 45fd0ad89d6d17b4fbe68eb48dbe9de9,
        type: 3}
      propertyPath: m_textInfo.spaceCount
      value: 0
      objectReference: {fileID: 0}
    - target: {fileID: 9181818329810857364, guid: 45fd0ad89d6d17b4fbe68eb48dbe9de9,
        type: 3}
      propertyPath: m_havePropertiesChanged
      value: 0
      objectReference: {fileID: 0}
    - target: {fileID: 9181818329810857364, guid: 45fd0ad89d6d17b4fbe68eb48dbe9de9,
        type: 3}
      propertyPath: m_isInputParsingRequired
      value: 0
      objectReference: {fileID: 0}
    - target: {fileID: 9181818329810857364, guid: 45fd0ad89d6d17b4fbe68eb48dbe9de9,
        type: 3}
      propertyPath: m_textInfo.characterCount
      value: 0
      objectReference: {fileID: 0}
    m_RemovedComponents: []
  m_SourcePrefab: {fileID: 100100000, guid: 45fd0ad89d6d17b4fbe68eb48dbe9de9, type: 3}
--- !u!4 &4517410700915696005 stripped
Transform:
  m_CorrespondingSourceObject: {fileID: 1944713263, guid: 45fd0ad89d6d17b4fbe68eb48dbe9de9,
    type: 3}
  m_PrefabInstance: {fileID: 4517410701765581226}
  m_PrefabAsset: {fileID: 0}
--- !u!1001 &6144911380059188383
PrefabInstance:
  m_ObjectHideFlags: 0
  serializedVersion: 2
  m_Modification:
    m_TransformParent: {fileID: 4517410701102429036}
    m_Modifications:
    - target: {fileID: 1874729665501627384, guid: 3f1f46cbecbe08e46a303ccfdb5b498a,
        type: 3}
      propertyPath: m_IsActive
      value: 0
      objectReference: {fileID: 0}
    - target: {fileID: 2204069621426241315, guid: 3f1f46cbecbe08e46a303ccfdb5b498a,
        type: 3}
      propertyPath: m_Name
      value: NextImage
      objectReference: {fileID: 0}
    - target: {fileID: 2204069621878992557, guid: 3f1f46cbecbe08e46a303ccfdb5b498a,
        type: 3}
      propertyPath: m_Mesh
      value: 
      objectReference: {fileID: 0}
    - target: {fileID: 2204069621878992593, guid: 3f1f46cbecbe08e46a303ccfdb5b498a,
        type: 3}
      propertyPath: m_IsActive
      value: 0
      objectReference: {fileID: 0}
    - target: {fileID: 2204069621878992595, guid: 3f1f46cbecbe08e46a303ccfdb5b498a,
        type: 3}
      propertyPath: m_textAlignment
      value: 65535
      objectReference: {fileID: 0}
    - target: {fileID: 2204069621878992595, guid: 3f1f46cbecbe08e46a303ccfdb5b498a,
        type: 3}
      propertyPath: m_VerticalAlignment
      value: 512
      objectReference: {fileID: 0}
    - target: {fileID: 2204069621878992595, guid: 3f1f46cbecbe08e46a303ccfdb5b498a,
        type: 3}
      propertyPath: m_HorizontalAlignment
      value: 2
      objectReference: {fileID: 0}
    - target: {fileID: 2204069623020599746, guid: 3f1f46cbecbe08e46a303ccfdb5b498a,
        type: 3}
      propertyPath: m_RootOrder
      value: 4
      objectReference: {fileID: 0}
    - target: {fileID: 2204069623020599746, guid: 3f1f46cbecbe08e46a303ccfdb5b498a,
        type: 3}
      propertyPath: m_LocalScale.y
      value: 7.8888836
      objectReference: {fileID: 0}
    - target: {fileID: 2204069623020599746, guid: 3f1f46cbecbe08e46a303ccfdb5b498a,
        type: 3}
      propertyPath: m_LocalPosition.x
      value: 0.3745
      objectReference: {fileID: 0}
    - target: {fileID: 2204069623020599746, guid: 3f1f46cbecbe08e46a303ccfdb5b498a,
        type: 3}
      propertyPath: m_LocalPosition.y
      value: -0.166
      objectReference: {fileID: 0}
    - target: {fileID: 2204069623020599746, guid: 3f1f46cbecbe08e46a303ccfdb5b498a,
        type: 3}
      propertyPath: m_LocalPosition.z
      value: 0.0429
      objectReference: {fileID: 0}
    - target: {fileID: 2204069623020599746, guid: 3f1f46cbecbe08e46a303ccfdb5b498a,
        type: 3}
      propertyPath: m_LocalRotation.w
      value: 1
      objectReference: {fileID: 0}
    - target: {fileID: 2204069623020599746, guid: 3f1f46cbecbe08e46a303ccfdb5b498a,
        type: 3}
      propertyPath: m_LocalRotation.x
      value: -0
      objectReference: {fileID: 0}
    - target: {fileID: 2204069623020599746, guid: 3f1f46cbecbe08e46a303ccfdb5b498a,
        type: 3}
      propertyPath: m_LocalRotation.y
      value: -0
      objectReference: {fileID: 0}
    - target: {fileID: 2204069623020599746, guid: 3f1f46cbecbe08e46a303ccfdb5b498a,
        type: 3}
      propertyPath: m_LocalRotation.z
      value: -0
      objectReference: {fileID: 0}
    - target: {fileID: 2204069623020599746, guid: 3f1f46cbecbe08e46a303ccfdb5b498a,
        type: 3}
      propertyPath: m_LocalEulerAnglesHint.x
      value: 0
      objectReference: {fileID: 0}
    - target: {fileID: 2204069623020599746, guid: 3f1f46cbecbe08e46a303ccfdb5b498a,
        type: 3}
      propertyPath: m_LocalEulerAnglesHint.y
      value: 0
      objectReference: {fileID: 0}
    - target: {fileID: 2204069623020599746, guid: 3f1f46cbecbe08e46a303ccfdb5b498a,
        type: 3}
      propertyPath: m_LocalEulerAnglesHint.z
      value: 0
      objectReference: {fileID: 0}
    - target: {fileID: 4607504470098667674, guid: 3f1f46cbecbe08e46a303ccfdb5b498a,
        type: 3}
      propertyPath: m_Mesh
      value: 
      objectReference: {fileID: 0}
    - target: {fileID: 7060011145322376313, guid: 3f1f46cbecbe08e46a303ccfdb5b498a,
        type: 3}
      propertyPath: m_textAlignment
      value: 65535
      objectReference: {fileID: 0}
    - target: {fileID: 7060011145322376313, guid: 3f1f46cbecbe08e46a303ccfdb5b498a,
        type: 3}
      propertyPath: m_VerticalAlignment
      value: 512
      objectReference: {fileID: 0}
    - target: {fileID: 7060011145322376313, guid: 3f1f46cbecbe08e46a303ccfdb5b498a,
        type: 3}
      propertyPath: m_HorizontalAlignment
      value: 2
      objectReference: {fileID: 0}
    - target: {fileID: 8405082116546204954, guid: 3f1f46cbecbe08e46a303ccfdb5b498a,
        type: 3}
      propertyPath: iconQuadTexture
      value: 
      objectReference: {fileID: 2800000, guid: d74cdc58c5d172a469ea5ca987eb17f6, type: 3}
    - target: {fileID: 8779034279059886464, guid: 3f1f46cbecbe08e46a303ccfdb5b498a,
        type: 3}
      propertyPath: OnClick.m_PersistentCalls.m_Calls.Array.data[0].m_Target
      value: 
      objectReference: {fileID: 0}
    - target: {fileID: 8779034279059886464, guid: 3f1f46cbecbe08e46a303ccfdb5b498a,
        type: 3}
      propertyPath: OnClick.m_PersistentCalls.m_Calls.Array.data[0].m_MethodName
      value: DisplayNext
      objectReference: {fileID: 0}
    m_RemovedComponents: []
  m_SourcePrefab: {fileID: 100100000, guid: 3f1f46cbecbe08e46a303ccfdb5b498a, type: 3}
--- !u!4 &5463273112222160221 stripped
Transform:
  m_CorrespondingSourceObject: {fileID: 2204069623020599746, guid: 3f1f46cbecbe08e46a303ccfdb5b498a,
    type: 3}
  m_PrefabInstance: {fileID: 6144911380059188383}
  m_PrefabAsset: {fileID: 0}
--- !u!1001 &6144911380467813000
PrefabInstance:
  m_ObjectHideFlags: 0
  serializedVersion: 2
  m_Modification:
    m_TransformParent: {fileID: 4517410701102429036}
    m_Modifications:
    - target: {fileID: 1874729665501627384, guid: 3f1f46cbecbe08e46a303ccfdb5b498a,
        type: 3}
      propertyPath: m_IsActive
      value: 0
      objectReference: {fileID: 0}
    - target: {fileID: 2204069621426241315, guid: 3f1f46cbecbe08e46a303ccfdb5b498a,
        type: 3}
      propertyPath: m_Name
      value: BackImage
      objectReference: {fileID: 0}
    - target: {fileID: 2204069621878992557, guid: 3f1f46cbecbe08e46a303ccfdb5b498a,
        type: 3}
      propertyPath: m_Mesh
      value: 
      objectReference: {fileID: 0}
    - target: {fileID: 2204069621878992593, guid: 3f1f46cbecbe08e46a303ccfdb5b498a,
        type: 3}
      propertyPath: m_IsActive
      value: 0
      objectReference: {fileID: 0}
    - target: {fileID: 2204069621878992595, guid: 3f1f46cbecbe08e46a303ccfdb5b498a,
        type: 3}
      propertyPath: m_textAlignment
      value: 65535
      objectReference: {fileID: 0}
    - target: {fileID: 2204069621878992595, guid: 3f1f46cbecbe08e46a303ccfdb5b498a,
        type: 3}
      propertyPath: m_VerticalAlignment
      value: 512
      objectReference: {fileID: 0}
    - target: {fileID: 2204069621878992595, guid: 3f1f46cbecbe08e46a303ccfdb5b498a,
        type: 3}
      propertyPath: m_HorizontalAlignment
      value: 2
      objectReference: {fileID: 0}
    - target: {fileID: 2204069623020599746, guid: 3f1f46cbecbe08e46a303ccfdb5b498a,
        type: 3}
      propertyPath: m_RootOrder
      value: 5
      objectReference: {fileID: 0}
    - target: {fileID: 2204069623020599746, guid: 3f1f46cbecbe08e46a303ccfdb5b498a,
        type: 3}
      propertyPath: m_LocalScale.x
      value: -1
      objectReference: {fileID: 0}
    - target: {fileID: 2204069623020599746, guid: 3f1f46cbecbe08e46a303ccfdb5b498a,
        type: 3}
      propertyPath: m_LocalScale.y
      value: 7.888884
      objectReference: {fileID: 0}
    - target: {fileID: 2204069623020599746, guid: 3f1f46cbecbe08e46a303ccfdb5b498a,
        type: 3}
      propertyPath: m_LocalPosition.x
      value: -0.509
      objectReference: {fileID: 0}
    - target: {fileID: 2204069623020599746, guid: 3f1f46cbecbe08e46a303ccfdb5b498a,
        type: 3}
      propertyPath: m_LocalPosition.y
      value: -0.166
      objectReference: {fileID: 0}
    - target: {fileID: 2204069623020599746, guid: 3f1f46cbecbe08e46a303ccfdb5b498a,
        type: 3}
      propertyPath: m_LocalPosition.z
      value: 0.0429
      objectReference: {fileID: 0}
    - target: {fileID: 2204069623020599746, guid: 3f1f46cbecbe08e46a303ccfdb5b498a,
        type: 3}
      propertyPath: m_LocalRotation.w
      value: 1
      objectReference: {fileID: 0}
    - target: {fileID: 2204069623020599746, guid: 3f1f46cbecbe08e46a303ccfdb5b498a,
        type: 3}
      propertyPath: m_LocalRotation.x
      value: -0
      objectReference: {fileID: 0}
    - target: {fileID: 2204069623020599746, guid: 3f1f46cbecbe08e46a303ccfdb5b498a,
        type: 3}
      propertyPath: m_LocalRotation.y
      value: -0
      objectReference: {fileID: 0}
    - target: {fileID: 2204069623020599746, guid: 3f1f46cbecbe08e46a303ccfdb5b498a,
        type: 3}
      propertyPath: m_LocalRotation.z
      value: -0
      objectReference: {fileID: 0}
    - target: {fileID: 2204069623020599746, guid: 3f1f46cbecbe08e46a303ccfdb5b498a,
        type: 3}
      propertyPath: m_LocalEulerAnglesHint.x
      value: 0
      objectReference: {fileID: 0}
    - target: {fileID: 2204069623020599746, guid: 3f1f46cbecbe08e46a303ccfdb5b498a,
        type: 3}
      propertyPath: m_LocalEulerAnglesHint.y
      value: 0
      objectReference: {fileID: 0}
    - target: {fileID: 2204069623020599746, guid: 3f1f46cbecbe08e46a303ccfdb5b498a,
        type: 3}
      propertyPath: m_LocalEulerAnglesHint.z
      value: 0
      objectReference: {fileID: 0}
    - target: {fileID: 4607504470098667674, guid: 3f1f46cbecbe08e46a303ccfdb5b498a,
        type: 3}
      propertyPath: m_Mesh
      value: 
      objectReference: {fileID: 0}
    - target: {fileID: 7060011145322376313, guid: 3f1f46cbecbe08e46a303ccfdb5b498a,
        type: 3}
      propertyPath: m_textAlignment
      value: 65535
      objectReference: {fileID: 0}
    - target: {fileID: 7060011145322376313, guid: 3f1f46cbecbe08e46a303ccfdb5b498a,
        type: 3}
      propertyPath: m_VerticalAlignment
      value: 512
      objectReference: {fileID: 0}
    - target: {fileID: 7060011145322376313, guid: 3f1f46cbecbe08e46a303ccfdb5b498a,
        type: 3}
      propertyPath: m_HorizontalAlignment
      value: 2
      objectReference: {fileID: 0}
    - target: {fileID: 8405082116546204954, guid: 3f1f46cbecbe08e46a303ccfdb5b498a,
        type: 3}
      propertyPath: iconQuadTexture
      value: 
      objectReference: {fileID: 2800000, guid: d74cdc58c5d172a469ea5ca987eb17f6, type: 3}
    - target: {fileID: 8779034279059886464, guid: 3f1f46cbecbe08e46a303ccfdb5b498a,
        type: 3}
      propertyPath: OnClick.m_PersistentCalls.m_Calls.Array.data[0].m_Target
      value: 
      objectReference: {fileID: 0}
    - target: {fileID: 8779034279059886464, guid: 3f1f46cbecbe08e46a303ccfdb5b498a,
        type: 3}
      propertyPath: OnClick.m_PersistentCalls.m_Calls.Array.data[0].m_MethodName
      value: DisplayBack
      objectReference: {fileID: 0}
    m_RemovedComponents: []
  m_SourcePrefab: {fileID: 100100000, guid: 3f1f46cbecbe08e46a303ccfdb5b498a, type: 3}
--- !u!4 &5463273111826019146 stripped
Transform:
  m_CorrespondingSourceObject: {fileID: 2204069623020599746, guid: 3f1f46cbecbe08e46a303ccfdb5b498a,
    type: 3}
  m_PrefabInstance: {fileID: 6144911380467813000}
  m_PrefabAsset: {fileID: 0}
